03_advanced
…
$comment
[1] "CAR-T cell trials"

Peek at Variables, Events, & Instruments

Stephan created fake data that mimics the real CAR-T investigation. The first snippet reveals info from the 368 variables. The second reveals info about the combinations of events & instruments.

REDCapR::redcap_metadata_read(
  redcap_uri  = credential$redcap_uri,
  token       = credential$token
)$data

The data dictionary describing 368 fields was read from REDCap in 1.3 seconds.  The http status code was 200.

# A tibble: 368 × 18
   field_name                    form_name section_header field_type field_label
   <chr>                         <chr>     <chr>          <chr>      <chr>      
 1 infseq_id                     infusion… <NA>           text       "<div clas…
 2 infseq_number                 infusion… <NA>           calc       "Infusion …
 3 infseq_number_retreatment     infusion… <NA>           calc       "Retreatme…
 4 infseq_infusion_dtxt          infusion… <NA>           descripti… "<div clas…
 5 infseq_primary_label          infusion… <NA>           descripti… "Please co…
 6 infseq_reinfusion1_label      infusion… <NA>           descripti… "Please co…
 7 infseq_reinfusion2_label      infusion… <NA>           descripti… "Please co…
 8 infseq_reinfusion3_label      infusion… <NA>           descripti… "Please co…
 9 infseq_retreatment1_primary_… infusion… <NA>           descripti… "Please co…
10 infseq_retreatment1_reinfusi… infusion… <NA>           descripti… "Please co…
# ℹ 358 more rows
# ℹ 13 more variables: select_choices_or_calculations <chr>, field_note <chr>,
#   text_validation_type_or_show_slider_number <chr>,
#   text_validation_min <chr>, text_validation_max <chr>, identifier <chr>,
#   branching_logic <chr>, required_field <chr>, custom_alignment <chr>,
#   question_number <chr>, matrix_group_name <chr>, matrix_ranking <chr>,
#   field_annotation <chr>

REDCapR::redcap_event_instruments(
  redcap_uri  = credential$redcap_uri,
  token       = credential$token
)$data

107 event instrument metadata records were read from REDCap in 1.0 seconds.  The http status code was 200.

# A tibble: 107 × 3
   arm_num unique_event_name        form                      
     <int> <chr>                    <chr>                     
 1       1 infusion_sequence_arm_1  infusion_sequence         
 2       1 screening__enrollm_arm_1 demographics              
 3       1 screening__enrollm_arm_1 cohort_phase_assignment   
 4       1 screening__enrollm_arm_1 medical_history           
 5       1 screening__enrollm_arm_1 diagnosis_extent_of_cancer
 6       1 screening__enrollm_arm_1 eligibility               
 7       1 screening__enrollm_arm_1 consent                   
 8       1 screening__enrollm_arm_1 physical_exam             
 9       1 screening__enrollm_arm_1 vital_signs               
10       1 screening__enrollm_arm_1 hematology                
# ℹ 97 more rows
…
